%
M48
M72
T01C0.0120
T02C0.0200
T03C0.0280
T04C0.0320
T05C0.0433
T06C0.1063
T07C0.1575
%
T01
X17650Y23081
X21450Y24681
X23250Y24681
X23450Y26581
X23950Y26581
X24650Y26681
X21750Y28181
X21950Y28581
X21950Y29681
X22350Y29681
X22350Y30881
X20950Y30481
X19250Y30281
X20350Y27881
X20550Y27581
X19750Y26681
X16750Y27781
X26150Y29381
X26850Y29381
X27950Y29381
X28450Y29381
X27550Y30681
X27150Y30681
T02
X18085Y32046
X38950Y34581
T03
X18000Y22531
X20850Y21681
X20750Y19181
X28150Y21181
X28850Y21681
X33150Y21181
X33450Y21681
X33150Y25581
X28150Y25581
X25550Y27081
X29150Y29281
X28250Y31281
X19050Y33581
X16750Y34281
X36150Y31181
T04
X32450Y27781
X31450Y27781
X30450Y27781
X30450Y30781
X31450Y30781
X32450Y30781
X32556Y32836
X33556Y32836
X20744Y32836
X21744Y32836
X24681Y32836
X25681Y32836
X28619Y32836
X29619Y32836
T05
X12373Y13700
X41928Y13700
X15928Y33862
X38373Y33862
T06
X14888Y14360
X44065Y15181
X36235Y32381
X13412Y33202
T07
X12189Y11183
X42111Y11183
M30
